%YAML 1.1
%TAG !u! tag:unity3d.com,2011:
--- !u!74 &7400000
AnimationClip:
  m_ObjectHideFlags: 0
  m_PrefabParentObject: {fileID: 0}
  m_PrefabInternal: {fileID: 0}
  m_Name: Button-Icons-Animation
  serializedVersion: 6
  m_Legacy: 0
  m_Compressed: 0
  m_UseHighQualityCurve: 1
  m_RotationCurves: []
  m_CompressedRotationCurves: []
  m_EulerCurves: []
  m_PositionCurves: []
  m_ScaleCurves: []
  m_FloatCurves:
  - curve:
      serializedVersion: 2
      m_Curve:
      - time: 0
        value: 100
        inSlope: 30
        outSlope: 30
        tangentMode: 10
      - time: 0.33333334
        value: 110
        inSlope: 7.4999995
        outSlope: 7.4999995
        tangentMode: 10
      - time: 1
        value: 100
        inSlope: -15.000001
        outSlope: -15.000001
        tangentMode: 10
      m_PreInfinity: 2
      m_PostInfinity: 2
      m_RotationOrder: 4
    attribute: m_SizeDelta.x
    path: Panel-Turn-Left/Turn-Left-Button-Image
    classID: 224
    script: {fileID: 0}
  - curve:
      serializedVersion: 2
      m_Curve:
      - time: 0
        value: 100
        inSlope: 30
        outSlope: 30
        tangentMode: 10
      - time: 0.33333334
        value: 110
        inSlope: 7.4999995
        outSlope: 7.4999995
        tangentMode: 10
      - time: 1
        value: 100
        inSlope: -15.000001
        outSlope: -15.000001
        tangentMode: 10
      m_PreInfinity: 2
      m_PostInfinity: 2
      m_RotationOrder: 4
    attribute: m_SizeDelta.y
    path: Panel-Turn-Left/Turn-Left-Button-Image
    classID: 224
    script: {fileID: 0}
  - curve:
      serializedVersion: 2
      m_Curve:
      - time: 0.33333334
        value: 100
        inSlope: 30
        outSlope: 30
        tangentMode: 10
      - time: 0.6666667
        value: 110
        inSlope: 7.5
        outSlope: 7.5
        tangentMode: 10
      - time: 1.3333334
        value: 100
        inSlope: -15
        outSlope: -15
        tangentMode: 10
      m_PreInfinity: 2
      m_PostInfinity: 2
      m_RotationOrder: 4
    attribute: m_SizeDelta.x
    path: Panel-Turn-Right/Turn-Right-Button-Image
    classID: 224
    script: {fileID: 0}
  - curve:
      serializedVersion: 2
      m_Curve:
      - time: 0.33333334
        value: 100
        inSlope: 30
        outSlope: 30
        tangentMode: 10
      - time: 0.6666667
        value: 110
        inSlope: 7.5
        outSlope: 7.5
        tangentMode: 10
      - time: 1.3333334
        value: 100
        inSlope: -15
        outSlope: -15
        tangentMode: 10
      m_PreInfinity: 2
      m_PostInfinity: 2
      m_RotationOrder: 4
    attribute: m_SizeDelta.y
    path: Panel-Turn-Right/Turn-Right-Button-Image
    classID: 224
    script: {fileID: 0}
  - curve:
      serializedVersion: 2
      m_Curve:
      - time: 0.6666667
        value: 100
        inSlope: 30.000002
        outSlope: 30.000002
        tangentMode: 10
      - time: 1
        value: 110
        inSlope: 7.5000005
        outSlope: 7.5000005
        tangentMode: 10
      - time: 1.6666666
        value: 100
        inSlope: -15.000001
        outSlope: -15.000001
        tangentMode: 10
      m_PreInfinity: 2
      m_PostInfinity: 2
      m_RotationOrder: 4
    attribute: m_SizeDelta.x
    path: Panel-Turn-Breaks/Breaks-Button-Image
    classID: 224
    script: {fileID: 0}
  - curve:
      serializedVersion: 2
      m_Curve:
      - time: 0.6666667
        value: 100
        inSlope: 30.000002
        outSlope: 30.000002
        tangentMode: 10
      - time: 1
        value: 110
        inSlope: 7.5000005
        outSlope: 7.5000005
        tangentMode: 10
      - time: 1.6666666
        value: 100
        inSlope: -15.000001
        outSlope: -15.000001
        tangentMode: 10
      m_PreInfinity: 2
      m_PostInfinity: 2
      m_RotationOrder: 4
    attribute: m_SizeDelta.y
    path: Panel-Turn-Breaks/Breaks-Button-Image
    classID: 224
    script: {fileID: 0}
  - curve:
      serializedVersion: 2
      m_Curve:
      - time: 1
        value: 100
        inSlope: 29.999996
        outSlope: 29.999996
        tangentMode: 10
      - time: 1.3333334
        value: 110
        inSlope: 7.4999976
        outSlope: 7.4999976
        tangentMode: 10
      - time: 2
        value: 100
        inSlope: -15.000001
        outSlope: -15.000001
        tangentMode: 10
      m_PreInfinity: 2
      m_PostInfinity: 2
      m_RotationOrder: 4
    attribute: m_SizeDelta.x
    path: Panel-Turn-Fullscreen/Fullscreen-Button-Image
    classID: 224
    script: {fileID: 0}
  - curve:
      serializedVersion: 2
      m_Curve:
      - time: 1
        value: 100
        inSlope: 29.999996
        outSlope: 29.999996
        tangentMode: 10
      - time: 1.3333334
        value: 110
        inSlope: 7.4999976
        outSlope: 7.4999976
        tangentMode: 10
      - time: 2
        value: 100
        inSlope: -15.000001
        outSlope: -15.000001
        tangentMode: 10
      m_PreInfinity: 2
      m_PostInfinity: 2
      m_RotationOrder: 4
    attribute: m_SizeDelta.y
    path: Panel-Turn-Fullscreen/Fullscreen-Button-Image
    classID: 224
    script: {fileID: 0}
  m_PPtrCurves: []
  m_SampleRate: 60
  m_WrapMode: 0
  m_Bounds:
    m_Center: {x: 0, y: 0, z: 0}
    m_Extent: {x: 0, y: 0, z: 0}
  m_ClipBindingConstant:
    genericBindings:
    - path: 977932545
      attribute: 1967290853
      script: {fileID: 0}
      classID: 224
      customType: 0
      isPPtrCurve: 0
    - path: 977932545
      attribute: 38095219
      script: {fileID: 0}
      classID: 224
      customType: 0
      isPPtrCurve: 0
    - path: 348850832
      attribute: 1967290853
      script: {fileID: 0}
      classID: 224
      customType: 0
      isPPtrCurve: 0
    - path: 348850832
      attribute: 38095219
      script: {fileID: 0}
      classID: 224
      customType: 0
      isPPtrCurve: 0
    - path: 1331890902
      attribute: 1967290853
      script: {fileID: 0}
      classID: 224
      customType: 0
      isPPtrCurve: 0
    - path: 1331890902
      attribute: 38095219
      script: {fileID: 0}
      classID: 224
      customType: 0
      isPPtrCurve: 0
    - path: 3819786717
      attribute: 1967290853
      script: {fileID: 0}
      classID: 224
      customType: 0
      isPPtrCurve: 0
    - path: 3819786717
      attribute: 38095219
      script: {fileID: 0}
      classID: 224
      customType: 0
      isPPtrCurve: 0
    pptrCurveMapping: []
  m_AnimationClipSettings:
    serializedVersion: 2
    m_AdditiveReferencePoseClip: {fileID: 0}
    m_AdditiveReferencePoseTime: 0
    m_StartTime: 0
    m_StopTime: 2
    m_OrientationOffsetY: 0
    m_Level: 0
    m_CycleOffset: 0
    m_HasAdditiveReferencePose: 0
    m_LoopTime: 1
    m_LoopBlend: 0
    m_LoopBlendOrientation: 0
    m_LoopBlendPositionY: 0
    m_LoopBlendPositionXZ: 0
    m_KeepOriginalOrientation: 0
    m_KeepOriginalPositionY: 1
    m_KeepOriginalPositionXZ: 0
    m_HeightFromFeet: 0
    m_Mirror: 0
  m_EditorCurves:
  - curve:
      serializedVersion: 2
      m_Curve:
      - time: 0
        value: 100
        inSlope: 30
        outSlope: 30
        tangentMode: 10
      - time: 0.33333334
        value: 110
        inSlope: 7.4999995
        outSlope: 7.4999995
        tangentMode: 10
      - time: 1
        value: 100
        inSlope: -15.000001
        outSlope: -15.000001
        tangentMode: 10
      m_PreInfinity: 2
      m_PostInfinity: 2
      m_RotationOrder: 4
    attribute: m_SizeDelta.x
    path: Panel-Turn-Left/Turn-Left-Button-Image
    classID: 224
    script: {fileID: 0}
  - curve:
      serializedVersion: 2
      m_Curve:
      - time: 0
        value: 100
        inSlope: 30
        outSlope: 30
        tangentMode: 10
      - time: 0.33333334
        value: 110
        inSlope: 7.4999995
        outSlope: 7.4999995
        tangentMode: 10
      - time: 1
        value: 100
        inSlope: -15.000001
        outSlope: -15.000001
        tangentMode: 10
      m_PreInfinity: 2
      m_PostInfinity: 2
      m_RotationOrder: 4
    attribute: m_SizeDelta.y
    path: Panel-Turn-Left/Turn-Left-Button-Image
    classID: 224
    script: {fileID: 0}
  - curve:
      serializedVersion: 2
      m_Curve:
      - time: 0.33333334
        value: 100
        inSlope: 30
        outSlope: 30
        tangentMode: 10
      - time: 0.6666667
        value: 110
        inSlope: 7.5
        outSlope: 7.5
        tangentMode: 10
      - time: 1.3333334
        value: 100
        inSlope: -15
        outSlope: -15
        tangentMode: 10
      m_PreInfinity: 2
      m_PostInfinity: 2
      m_RotationOrder: 4
    attribute: m_SizeDelta.x
    path: Panel-Turn-Right/Turn-Right-Button-Image
    classID: 224
    script: {fileID: 0}
  - curve:
      serializedVersion: 2
      m_Curve:
      - time: 0.33333334
        value: 100
        inSlope: 30
        outSlope: 30
        tangentMode: 10
      - time: 0.6666667
        value: 110
        inSlope: 7.5
        outSlope: 7.5
        tangentMode: 10
      - time: 1.3333334
        value: 100
        inSlope: -15
        outSlope: -15
        tangentMode: 10
      m_PreInfinity: 2
      m_PostInfinity: 2
      m_RotationOrder: 4
    attribute: m_SizeDelta.y
    path: Panel-Turn-Right/Turn-Right-Button-Image
    classID: 224
    script: {fileID: 0}
  - curve:
      serializedVersion: 2
      m_Curve:
      - time: 0.6666667
        value: 100
        inSlope: 30.000002
        outSlope: 30.000002
        tangentMode: 10
      - time: 1
        value: 110
        inSlope: 7.5000005
        outSlope: 7.5000005
        tangentMode: 10
      - time: 1.6666666
        value: 100
        inSlope: -15.000001
        outSlope: -15.000001
        tangentMode: 10
      m_PreInfinity: 2
      m_PostInfinity: 2
      m_RotationOrder: 4
    attribute: m_SizeDelta.x
    path: Panel-Turn-Breaks/Breaks-Button-Image
    classID: 224
    script: {fileID: 0}
  - curve:
      serializedVersion: 2
      m_Curve:
      - time: 0.6666667
        value: 100
        inSlope: 30.000002
        outSlope: 30.000002
        tangentMode: 10
      - time: 1
        value: 110
        inSlope: 7.5000005
        outSlope: 7.5000005
        tangentMode: 10
      - time: 1.6666666
        value: 100
        inSlope: -15.000001
        outSlope: -15.000001
        tangentMode: 10
      m_PreInfinity: 2
      m_PostInfinity: 2
      m_RotationOrder: 4
    attribute: m_SizeDelta.y
    path: Panel-Turn-Breaks/Breaks-Button-Image
    classID: 224
    script: {fileID: 0}
  - curve:
      serializedVersion: 2
      m_Curve:
      - time: 1
        value: 100
        inSlope: 29.999996
        outSlope: 29.999996
        tangentMode: 10
      - time: 1.3333334
        value: 110
        inSlope: 7.4999976
        outSlope: 7.4999976
        tangentMode: 10
      - time: 2
        value: 100
        inSlope: -15.000001
        outSlope: -15.000001
        tangentMode: 10
      m_PreInfinity: 2
      m_PostInfinity: 2
      m_RotationOrder: 4
    attribute: m_SizeDelta.x
    path: Panel-Turn-Fullscreen/Fullscreen-Button-Image
    classID: 224
    script: {fileID: 0}
  - curve:
      serializedVersion: 2
      m_Curve:
      - time: 1
        value: 100
        inSlope: 29.999996
        outSlope: 29.999996
        tangentMode: 10
      - time: 1.3333334
        value: 110
        inSlope: 7.4999976
        outSlope: 7.4999976
        tangentMode: 10
      - time: 2
        value: 100
        inSlope: -15.000001
        outSlope: -15.000001
        tangentMode: 10
      m_PreInfinity: 2
      m_PostInfinity: 2
      m_RotationOrder: 4
    attribute: m_SizeDelta.y
    path: Panel-Turn-Fullscreen/Fullscreen-Button-Image
    classID: 224
    script: {fileID: 0}
  m_EulerEditorCurves: []
  m_HasGenericRootTransform: 0
  m_HasMotionFloatCurves: 0
  m_GenerateMotionCurves: 0
  m_Events: []
